2021/10/27 06:48:20 [notice] 1#1: using the "epoll" event method
2021/10/27 06:48:20 [notice] 1#1: nginx/1.21.3
2021/10/27 06:48:20 [notice] 1#1: built by gcc 8.3.0 (Debian 8.3.0-6) 
2021/10/27 06:48:20 [notice] 1#1: OS: Linux 5.11.0-38-generic
2021/10/27 06:48:20 [notice] 1#1: getrlimit(RLIMIT_NOFILE): 1048576:1048576
2021/10/27 06:48:20 [notice] 1#1: start worker processes
2021/10/27 06:48:20 [notice] 1#1: start worker process 22
2021/10/27 06:48:20 [notice] 1#1: start worker process 23
2021/10/27 06:48:20 [notice] 1#1: start worker process 24
2021/10/27 06:48:20 [notice] 1#1: start worker process 25
2021/10/27 06:48:20 [notice] 1#1: start worker process 26
2021/10/27 06:48:20 [notice] 1#1: start worker process 27
2021/10/27 07:18:09 [notice] 1#1: using the "epoll" event method
2021/10/27 07:18:09 [notice] 1#1: nginx/1.21.3
2021/10/27 07:18:09 [notice] 1#1: built by gcc 8.3.0 (Debian 8.3.0-6) 
2021/10/27 07:18:09 [notice] 1#1: OS: Linux 5.11.0-38-generic
2021/10/27 07:18:09 [notice] 1#1: getrlimit(RLIMIT_NOFILE): 1048576:1048576
2021/10/27 07:18:09 [notice] 1#1: start worker processes
2021/10/27 07:18:09 [notice] 1#1: start worker process 22
2021/10/27 07:18:09 [notice] 1#1: start worker process 23
2021/10/27 07:18:09 [notice] 1#1: start worker process 24
2021/10/27 07:18:09 [notice] 1#1: start worker process 25
2021/10/27 07:18:09 [notice] 1#1: start worker process 26
2021/10/27 07:18:09 [notice] 1#1: start worker process 27
2021/10/27 08:15:58 [notice] 1#1: signal 3 (SIGQUIT) received, shutting down
2021/10/27 08:15:58 [notice] 22#22: gracefully shutting down
2021/10/27 08:15:58 [notice] 23#23: gracefully shutting down
2021/10/27 08:15:58 [notice] 22#22: exiting
2021/10/27 08:15:58 [notice] 23#23: exiting
2021/10/27 08:15:58 [notice] 27#27: gracefully shutting down
2021/10/27 08:15:58 [notice] 25#25: gracefully shutting down
2021/10/27 08:15:58 [notice] 27#27: exiting
2021/10/27 08:15:58 [notice] 25#25: exiting
2021/10/27 08:15:58 [notice] 22#22: exit
2021/10/27 08:15:58 [notice] 23#23: exit
2021/10/27 08:15:58 [notice] 27#27: exit
2021/10/27 08:15:58 [notice] 25#25: exit
2021/10/27 08:15:58 [notice] 24#24: gracefully shutting down
2021/10/27 08:15:58 [notice] 24#24: exiting
2021/10/27 08:15:58 [notice] 24#24: exit
2021/10/27 08:15:58 [notice] 26#26: gracefully shutting down
2021/10/27 08:15:58 [notice] 26#26: exiting
2021/10/27 08:15:58 [notice] 26#26: exit
2021/10/27 08:15:58 [notice] 1#1: signal 17 (SIGCHLD) received from 25
2021/10/27 08:15:58 [notice] 1#1: worker process 24 exited with code 0
2021/10/27 08:15:58 [notice] 1#1: worker process 25 exited with code 0
2021/10/27 08:15:58 [notice] 1#1: worker process 26 exited with code 0
2021/10/27 08:15:58 [notice] 1#1: signal 29 (SIGIO) received
2021/10/27 08:15:58 [notice] 1#1: signal 17 (SIGCHLD) received from 22
2021/10/27 08:15:58 [notice] 1#1: worker process 22 exited with code 0
2021/10/27 08:15:58 [notice] 1#1: signal 29 (SIGIO) received
2021/10/27 08:15:58 [notice] 1#1: signal 17 (SIGCHLD) received from 23
2021/10/27 08:15:58 [notice] 1#1: worker process 23 exited with code 0
2021/10/27 08:15:58 [notice] 1#1: signal 29 (SIGIO) received
2021/10/27 08:15:58 [notice] 1#1: signal 17 (SIGCHLD) received from 27
2021/10/27 08:15:58 [notice] 1#1: worker process 27 exited with code 0
2021/10/27 08:15:58 [notice] 1#1: exit
2021/10/27 08:16:11 [notice] 1#1: using the "epoll" event method
2021/10/27 08:16:11 [notice] 1#1: nginx/1.21.3
2021/10/27 08:16:11 [notice] 1#1: built by gcc 8.3.0 (Debian 8.3.0-6) 
2021/10/27 08:16:11 [notice] 1#1: OS: Linux 5.11.0-38-generic
2021/10/27 08:16:11 [notice] 1#1: getrlimit(RLIMIT_NOFILE): 1048576:1048576
2021/10/27 08:16:11 [notice] 1#1: start worker processes
2021/10/27 08:16:11 [notice] 1#1: start worker process 22
2021/10/27 08:16:11 [notice] 1#1: start worker process 23
2021/10/27 08:16:11 [notice] 1#1: start worker process 24
2021/10/27 08:16:11 [notice] 1#1: start worker process 25
2021/10/27 08:16:11 [notice] 1#1: start worker process 26
2021/10/27 08:16:11 [notice] 1#1: start worker process 27
2021/10/27 12:54:02 [notice] 1#1: signal 3 (SIGQUIT) received, shutting down
2021/10/27 12:54:02 [notice] 22#22: gracefully shutting down
2021/10/27 12:54:02 [notice] 23#23: gracefully shutting down
2021/10/27 12:54:02 [notice] 24#24: gracefully shutting down
2021/10/27 12:54:02 [notice] 22#22: exiting
2021/10/27 12:54:02 [notice] 23#23: exiting
2021/10/27 12:54:02 [notice] 24#24: exiting
2021/10/27 12:54:02 [notice] 25#25: gracefully shutting down
2021/10/27 12:54:02 [notice] 26#26: gracefully shutting down
2021/10/27 12:54:02 [notice] 22#22: exit
2021/10/27 12:54:02 [notice] 24#24: exit
2021/10/27 12:54:02 [notice] 25#25: exiting
2021/10/27 12:54:02 [notice] 26#26: exiting
2021/10/27 12:54:02 [notice] 25#25: exit
2021/10/27 12:54:02 [notice] 26#26: exit
2021/10/27 12:54:02 [notice] 27#27: gracefully shutting down
2021/10/27 12:54:02 [notice] 27#27: exiting
2021/10/27 12:54:02 [notice] 27#27: exit
2021/10/27 12:54:02 [notice] 23#23: exit
2021/10/27 12:54:02 [notice] 1#1: signal 17 (SIGCHLD) received from 23
2021/10/27 12:54:02 [notice] 1#1: worker process 23 exited with code 0
2021/10/27 12:54:02 [notice] 1#1: worker process 24 exited with code 0
2021/10/27 12:54:02 [notice] 1#1: worker process 26 exited with code 0
2021/10/27 12:54:02 [notice] 1#1: worker process 27 exited with code 0
2021/10/27 12:54:02 [notice] 1#1: signal 29 (SIGIO) received
2021/10/27 12:54:02 [notice] 1#1: signal 17 (SIGCHLD) received from 24
2021/10/27 12:54:02 [notice] 1#1: signal 17 (SIGCHLD) received from 22
2021/10/27 12:54:02 [notice] 1#1: worker process 22 exited with code 0
2021/10/27 12:54:02 [notice] 1#1: signal 29 (SIGIO) received
2021/10/27 12:54:02 [notice] 1#1: signal 17 (SIGCHLD) received from 25
2021/10/27 12:54:02 [notice] 1#1: worker process 25 exited with code 0
2021/10/27 12:54:02 [notice] 1#1: exit
2021/10/27 12:55:44 [notice] 1#1: using the "epoll" event method
2021/10/27 12:55:44 [notice] 1#1: nginx/1.21.3
2021/10/27 12:55:44 [notice] 1#1: built by gcc 8.3.0 (Debian 8.3.0-6) 
2021/10/27 12:55:44 [notice] 1#1: OS: Linux 5.11.0-38-generic
2021/10/27 12:55:44 [notice] 1#1: getrlimit(RLIMIT_NOFILE): 1048576:1048576
2021/10/27 12:55:44 [notice] 1#1: start worker processes
2021/10/27 12:55:44 [notice] 1#1: start worker process 22
2021/10/27 12:55:44 [notice] 1#1: start worker process 23
2021/10/27 12:55:44 [notice] 1#1: start worker process 24
2021/10/27 12:55:44 [notice] 1#1: start worker process 25
2021/10/27 12:55:44 [notice] 1#1: start worker process 26
2021/10/27 12:55:44 [notice] 1#1: start worker process 27
2021/10/27 12:57:19 [notice] 1#1: signal 3 (SIGQUIT) received, shutting down
2021/10/27 12:57:19 [notice] 22#22: gracefully shutting down
2021/10/27 12:57:19 [notice] 23#23: gracefully shutting down
2021/10/27 12:57:19 [notice] 24#24: gracefully shutting down
2021/10/27 12:57:19 [notice] 22#22: exiting
2021/10/27 12:57:19 [notice] 25#25: gracefully shutting down
2021/10/27 12:57:19 [notice] 23#23: exiting
2021/10/27 12:57:19 [notice] 24#24: exiting
2021/10/27 12:57:19 [notice] 25#25: exiting
2021/10/27 12:57:19 [notice] 22#22: exit
2021/10/27 12:57:19 [notice] 23#23: exit
2021/10/27 12:57:19 [notice] 24#24: exit
2021/10/27 12:57:19 [notice] 25#25: exit
2021/10/27 12:57:19 [notice] 26#26: gracefully shutting down
2021/10/27 12:57:19 [notice] 26#26: exiting
2021/10/27 12:57:19 [notice] 27#27: gracefully shutting down
2021/10/27 12:57:19 [notice] 26#26: exit
2021/10/27 12:57:19 [notice] 27#27: exiting
2021/10/27 12:57:19 [notice] 27#27: exit
2021/10/27 12:57:19 [notice] 1#1: signal 17 (SIGCHLD) received from 24
2021/10/27 12:57:19 [notice] 1#1: worker process 22 exited with code 0
2021/10/27 12:57:19 [notice] 1#1: worker process 23 exited with code 0
2021/10/27 12:57:19 [notice] 1#1: worker process 24 exited with code 0
2021/10/27 12:57:19 [notice] 1#1: signal 29 (SIGIO) received
2021/10/27 12:57:19 [notice] 1#1: signal 17 (SIGCHLD) received from 22
2021/10/27 12:57:19 [notice] 1#1: signal 17 (SIGCHLD) received from 27
2021/10/27 12:57:19 [notice] 1#1: worker process 27 exited with code 0
2021/10/27 12:57:19 [notice] 1#1: worker process 26 exited with code 0
2021/10/27 12:57:19 [notice] 1#1: signal 29 (SIGIO) received
2021/10/27 12:57:19 [notice] 1#1: signal 17 (SIGCHLD) received from 26
2021/10/27 12:57:19 [notice] 1#1: signal 17 (SIGCHLD) received from 25
2021/10/27 12:57:19 [notice] 1#1: worker process 25 exited with code 0
2021/10/27 12:57:19 [notice] 1#1: exit
2021/10/27 12:57:23 [notice] 1#1: using the "epoll" event method
2021/10/27 12:57:23 [notice] 1#1: nginx/1.21.3
2021/10/27 12:57:23 [notice] 1#1: built by gcc 8.3.0 (Debian 8.3.0-6) 
2021/10/27 12:57:23 [notice] 1#1: OS: Linux 5.11.0-38-generic
2021/10/27 12:57:23 [notice] 1#1: getrlimit(RLIMIT_NOFILE): 1048576:1048576
2021/10/27 12:57:23 [notice] 1#1: start worker processes
2021/10/27 12:57:23 [notice] 1#1: start worker process 22
2021/10/27 12:57:23 [notice] 1#1: start worker process 23
2021/10/27 12:57:23 [notice] 1#1: start worker process 24
2021/10/27 12:57:23 [notice] 1#1: start worker process 25
2021/10/27 12:57:23 [notice] 1#1: start worker process 26
2021/10/27 12:57:23 [notice] 1#1: start worker process 27
2021/10/27 13:10:04 [notice] 1#1: signal 3 (SIGQUIT) received, shutting down
2021/10/27 13:10:04 [notice] 23#23: gracefully shutting down
2021/10/27 13:10:04 [notice] 24#24: gracefully shutting down
2021/10/27 13:10:04 [notice] 26#26: gracefully shutting down
2021/10/27 13:10:04 [notice] 25#25: gracefully shutting down
2021/10/27 13:10:04 [notice] 27#27: gracefully shutting down
2021/10/27 13:10:04 [notice] 23#23: exiting
2021/10/27 13:10:04 [notice] 24#24: exiting
2021/10/27 13:10:04 [notice] 26#26: exiting
2021/10/27 13:10:04 [notice] 25#25: exiting
2021/10/27 13:10:04 [notice] 27#27: exiting
2021/10/27 13:10:04 [notice] 23#23: exit
2021/10/27 13:10:04 [notice] 26#26: exit
2021/10/27 13:10:04 [notice] 24#24: exit
2021/10/27 13:10:04 [notice] 25#25: exit
2021/10/27 13:10:04 [notice] 27#27: exit
2021/10/27 13:10:04 [notice] 22#22: gracefully shutting down
2021/10/27 13:10:04 [notice] 22#22: exiting
2021/10/27 13:10:04 [notice] 22#22: exit
2021/10/27 13:10:04 [notice] 1#1: signal 17 (SIGCHLD) received from 23
2021/10/27 13:10:04 [notice] 1#1: worker process 23 exited with code 0
2021/10/27 13:10:04 [notice] 1#1: worker process 25 exited with code 0
2021/10/27 13:10:04 [notice] 1#1: worker process 27 exited with code 0
2021/10/27 13:10:04 [notice] 1#1: signal 29 (SIGIO) received
2021/10/27 13:10:04 [notice] 1#1: signal 17 (SIGCHLD) received from 25
2021/10/27 13:10:04 [notice] 1#1: signal 17 (SIGCHLD) received from 22
2021/10/27 13:10:04 [notice] 1#1: worker process 22 exited with code 0
2021/10/27 13:10:04 [notice] 1#1: signal 29 (SIGIO) received
2021/10/27 13:10:04 [notice] 1#1: signal 17 (SIGCHLD) received from 26
2021/10/27 13:10:04 [notice] 1#1: worker process 26 exited with code 0
2021/10/27 13:10:04 [notice] 1#1: signal 29 (SIGIO) received
2021/10/27 13:10:04 [notice] 1#1: signal 17 (SIGCHLD) received from 24
2021/10/27 13:10:04 [notice] 1#1: worker process 24 exited with code 0
2021/10/27 13:10:04 [notice] 1#1: exit
2021/10/27 13:11:58 [notice] 1#1: using the "epoll" event method
2021/10/27 13:11:58 [notice] 1#1: nginx/1.21.3
2021/10/27 13:11:58 [notice] 1#1: built by gcc 8.3.0 (Debian 8.3.0-6) 
2021/10/27 13:11:58 [notice] 1#1: OS: Linux 5.11.0-38-generic
2021/10/27 13:11:58 [notice] 1#1: getrlimit(RLIMIT_NOFILE): 1048576:1048576
2021/10/27 13:11:58 [notice] 1#1: start worker processes
2021/10/27 13:11:58 [notice] 1#1: start worker process 22
2021/10/27 13:11:58 [notice] 1#1: start worker process 23
2021/10/27 13:11:58 [notice] 1#1: start worker process 24
2021/10/27 13:11:58 [notice] 1#1: start worker process 25
2021/10/27 13:11:58 [notice] 1#1: start worker process 26
2021/10/27 13:11:58 [notice] 1#1: start worker process 27
2021/10/27 15:28:25 [notice] 1#1: signal 3 (SIGQUIT) received, shutting down
2021/10/27 15:28:25 [notice] 22#22: gracefully shutting down
2021/10/27 15:28:25 [notice] 23#23: gracefully shutting down
2021/10/27 15:28:25 [notice] 22#22: exiting
2021/10/27 15:28:25 [notice] 25#25: gracefully shutting down
2021/10/27 15:28:25 [notice] 24#24: gracefully shutting down
2021/10/27 15:28:25 [notice] 27#27: gracefully shutting down
2021/10/27 15:28:25 [notice] 23#23: exiting
2021/10/27 15:28:25 [notice] 25#25: exiting
2021/10/27 15:28:25 [notice] 24#24: exiting
2021/10/27 15:28:25 [notice] 22#22: exit
2021/10/27 15:28:25 [notice] 27#27: exiting
2021/10/27 15:28:25 [notice] 23#23: exit
2021/10/27 15:28:25 [notice] 25#25: exit
2021/10/27 15:28:25 [notice] 24#24: exit
2021/10/27 15:28:25 [notice] 27#27: exit
2021/10/27 15:28:25 [notice] 26#26: gracefully shutting down
2021/10/27 15:28:25 [notice] 26#26: exiting
2021/10/27 15:28:25 [notice] 26#26: exit
2021/10/27 15:28:25 [notice] 1#1: signal 17 (SIGCHLD) received from 22
2021/10/27 15:28:25 [notice] 1#1: worker process 22 exited with code 0
2021/10/27 15:28:25 [notice] 1#1: signal 29 (SIGIO) received
2021/10/27 15:28:25 [notice] 1#1: signal 17 (SIGCHLD) received from 23
2021/10/27 15:28:25 [notice] 1#1: worker process 23 exited with code 0
2021/10/27 15:28:25 [notice] 1#1: worker process 24 exited with code 0
2021/10/27 15:28:25 [notice] 1#1: signal 29 (SIGIO) received
2021/10/27 15:28:25 [notice] 1#1: signal 17 (SIGCHLD) received from 24
2021/10/27 15:28:25 [notice] 1#1: worker process 26 exited with code 0
2021/10/27 15:28:25 [notice] 1#1: worker process 27 exited with code 0
2021/10/27 15:28:25 [notice] 1#1: worker process 25 exited with code 0
2021/10/27 15:28:25 [notice] 1#1: exit
2021/10/27 15:28:35 [notice] 1#1: using the "epoll" event method
2021/10/27 15:28:35 [notice] 1#1: nginx/1.21.3
2021/10/27 15:28:35 [notice] 1#1: built by gcc 8.3.0 (Debian 8.3.0-6) 
2021/10/27 15:28:35 [notice] 1#1: OS: Linux 5.11.0-38-generic
2021/10/27 15:28:35 [notice] 1#1: getrlimit(RLIMIT_NOFILE): 1048576:1048576
2021/10/27 15:28:35 [notice] 1#1: start worker processes
2021/10/27 15:28:35 [notice] 1#1: start worker process 23
2021/10/27 15:28:35 [notice] 1#1: start worker process 24
2021/10/27 15:28:35 [notice] 1#1: start worker process 25
2021/10/27 15:28:35 [notice] 1#1: start worker process 26
2021/10/27 15:28:35 [notice] 1#1: start worker process 27
2021/10/27 15:28:35 [notice] 1#1: start worker process 28
2021/10/27 15:28:56 [notice] 1#1: signal 3 (SIGQUIT) received, shutting down
2021/10/27 15:28:56 [notice] 23#23: gracefully shutting down
2021/10/27 15:28:56 [notice] 24#24: gracefully shutting down
2021/10/27 15:28:56 [notice] 26#26: gracefully shutting down
2021/10/27 15:28:56 [notice] 25#25: gracefully shutting down
2021/10/27 15:28:56 [notice] 24#24: exiting
2021/10/27 15:28:56 [notice] 26#26: exiting
2021/10/27 15:28:56 [notice] 25#25: exiting
2021/10/27 15:28:56 [notice] 27#27: gracefully shutting down
2021/10/27 15:28:56 [notice] 26#26: exit
2021/10/27 15:28:56 [notice] 24#24: exit
2021/10/27 15:28:56 [notice] 27#27: exiting
2021/10/27 15:28:56 [notice] 25#25: exit
2021/10/27 15:28:56 [notice] 28#28: gracefully shutting down
2021/10/27 15:28:56 [notice] 28#28: exiting
2021/10/27 15:28:56 [notice] 27#27: exit
2021/10/27 15:28:56 [notice] 28#28: exit
2021/10/27 15:28:56 [notice] 1#1: signal 17 (SIGCHLD) received from 28
2021/10/27 15:28:56 [notice] 1#1: worker process 28 exited with code 0
2021/10/27 15:28:56 [notice] 1#1: signal 29 (SIGIO) received
2021/10/27 15:28:56 [notice] 1#1: signal 17 (SIGCHLD) received from 24
2021/10/27 15:28:56 [notice] 1#1: worker process 24 exited with code 0
2021/10/27 15:28:56 [notice] 1#1: signal 29 (SIGIO) received
2021/10/27 15:28:56 [notice] 1#1: signal 17 (SIGCHLD) received from 25
2021/10/27 15:28:56 [notice] 1#1: worker process 25 exited with code 0
2021/10/27 15:28:56 [notice] 1#1: signal 29 (SIGIO) received
2021/10/27 15:28:56 [notice] 1#1: signal 17 (SIGCHLD) received from 26
2021/10/27 15:28:56 [notice] 1#1: worker process 26 exited with code 0
2021/10/27 15:28:56 [notice] 1#1: signal 29 (SIGIO) received
2021/10/27 15:28:56 [notice] 1#1: signal 17 (SIGCHLD) received from 27
2021/10/27 15:28:56 [notice] 1#1: worker process 27 exited with code 0
2021/10/27 15:28:56 [notice] 1#1: signal 29 (SIGIO) received
2021/10/27 15:29:16 [notice] 1#1: using the "epoll" event method
2021/10/27 15:29:16 [notice] 1#1: nginx/1.21.3
2021/10/27 15:29:16 [notice] 1#1: built by gcc 8.3.0 (Debian 8.3.0-6) 
2021/10/27 15:29:16 [notice] 1#1: OS: Linux 5.11.0-38-generic
2021/10/27 15:29:16 [notice] 1#1: getrlimit(RLIMIT_NOFILE): 1048576:1048576
2021/10/27 15:29:16 [notice] 1#1: start worker processes
2021/10/27 15:29:16 [notice] 1#1: start worker process 23
2021/10/27 15:29:16 [notice] 1#1: start worker process 24
2021/10/27 15:29:16 [notice] 1#1: start worker process 25
2021/10/27 15:29:16 [notice] 1#1: start worker process 26
2021/10/27 15:29:16 [notice] 1#1: start worker process 27
2021/10/27 15:29:16 [notice] 1#1: start worker process 28
2021/10/27 16:13:28 [notice] 1#1: signal 3 (SIGQUIT) received, shutting down
2021/10/27 16:13:28 [notice] 28#28: gracefully shutting down
2021/10/27 16:13:28 [notice] 28#28: exiting
2021/10/27 16:13:28 [notice] 28#28: exit
2021/10/27 16:13:28 [notice] 26#26: gracefully shutting down
2021/10/27 16:13:28 [notice] 26#26: exiting
2021/10/27 16:13:28 [notice] 26#26: exit
2021/10/27 16:13:28 [notice] 25#25: gracefully shutting down
2021/10/27 16:13:28 [notice] 25#25: exiting
2021/10/27 16:13:28 [notice] 25#25: exit
2021/10/27 16:13:28 [notice] 27#27: gracefully shutting down
2021/10/27 16:13:28 [notice] 27#27: exiting
2021/10/27 16:13:28 [notice] 27#27: exit
2021/10/27 16:13:28 [notice] 24#24: gracefully shutting down
2021/10/27 16:13:28 [notice] 24#24: exiting
2021/10/27 16:13:28 [notice] 24#24: exit
2021/10/27 16:13:28 [notice] 23#23: gracefully shutting down
2021/10/27 16:13:28 [notice] 23#23: exiting
2021/10/27 16:13:28 [notice] 23#23: exit
2021/10/27 16:13:28 [notice] 1#1: signal 17 (SIGCHLD) received from 28
2021/10/27 16:13:28 [notice] 1#1: worker process 25 exited with code 0
2021/10/27 16:13:28 [notice] 1#1: worker process 28 exited with code 0
2021/10/27 16:13:28 [notice] 1#1: signal 29 (SIGIO) received
2021/10/27 16:13:28 [notice] 1#1: signal 17 (SIGCHLD) received from 25
2021/10/27 16:13:28 [notice] 1#1: signal 17 (SIGCHLD) received from 26
2021/10/27 16:13:28 [notice] 1#1: worker process 26 exited with code 0
2021/10/27 16:13:28 [notice] 1#1: signal 29 (SIGIO) received
2021/10/27 16:13:28 [notice] 1#1: signal 17 (SIGCHLD) received from 27
2021/10/27 16:13:28 [notice] 1#1: worker process 27 exited with code 0
2021/10/27 16:13:28 [notice] 1#1: signal 29 (SIGIO) received
2021/10/27 16:13:28 [notice] 1#1: signal 17 (SIGCHLD) received from 24
2021/10/27 16:13:28 [notice] 1#1: worker process 24 exited with code 0
2021/10/27 16:13:28 [notice] 1#1: signal 29 (SIGIO) received
2021/10/27 16:13:28 [notice] 1#1: signal 17 (SIGCHLD) received from 23
2021/10/27 16:13:28 [notice] 1#1: worker process 23 exited with code 0
2021/10/27 16:13:28 [notice] 1#1: exit
2021/10/28 12:31:05 [notice] 1#1: using the "epoll" event method
2021/10/28 12:31:05 [notice] 1#1: nginx/1.21.3
2021/10/28 12:31:05 [notice] 1#1: built by gcc 8.3.0 (Debian 8.3.0-6) 
2021/10/28 12:31:05 [notice] 1#1: OS: Linux 5.11.0-38-generic
2021/10/28 12:31:05 [notice] 1#1: getrlimit(RLIMIT_NOFILE): 1048576:1048576
2021/10/28 12:31:05 [notice] 1#1: start worker processes
2021/10/28 12:31:05 [notice] 1#1: start worker process 22
2021/10/28 12:31:05 [notice] 1#1: start worker process 23
2021/10/28 12:31:05 [notice] 1#1: start worker process 24
2021/10/28 12:31:05 [notice] 1#1: start worker process 25
2021/10/28 12:31:05 [notice] 1#1: start worker process 26
2021/10/28 12:31:05 [notice] 1#1: start worker process 27
2021/10/28 14:19:58 [notice] 1#1: signal 3 (SIGQUIT) received, shutting down
2021/10/28 14:19:58 [notice] 22#22: gracefully shutting down
2021/10/28 14:19:58 [notice] 23#23: gracefully shutting down
2021/10/28 14:19:58 [notice] 22#22: exiting
2021/10/28 14:19:58 [notice] 25#25: gracefully shutting down
2021/10/28 14:19:58 [notice] 24#24: gracefully shutting down
2021/10/28 14:19:58 [notice] 23#23: exiting
2021/10/28 14:19:58 [notice] 25#25: exiting
2021/10/28 14:19:58 [notice] 24#24: exiting
2021/10/28 14:19:58 [notice] 22#22: exit
2021/10/28 14:19:58 [notice] 26#26: gracefully shutting down
2021/10/28 14:19:58 [notice] 23#23: exit
2021/10/28 14:19:58 [notice] 25#25: exit
2021/10/28 14:19:58 [notice] 24#24: exit
2021/10/28 14:19:58 [notice] 26#26: exiting
2021/10/28 14:19:58 [notice] 26#26: exit
2021/10/28 14:19:58 [notice] 27#27: gracefully shutting down
2021/10/28 14:19:58 [notice] 27#27: exiting
2021/10/28 14:19:58 [notice] 27#27: exit
2021/10/28 14:19:58 [notice] 1#1: signal 17 (SIGCHLD) received from 25
2021/10/28 14:19:58 [notice] 1#1: worker process 25 exited with code 0
2021/10/28 14:19:58 [notice] 1#1: signal 29 (SIGIO) received
2021/10/28 14:19:58 [notice] 1#1: signal 17 (SIGCHLD) received from 26
2021/10/28 14:19:58 [notice] 1#1: worker process 26 exited with code 0
2021/10/28 14:19:58 [notice] 1#1: signal 29 (SIGIO) received
2021/10/28 14:19:58 [notice] 1#1: signal 17 (SIGCHLD) received from 24
2021/10/28 14:19:58 [notice] 1#1: worker process 23 exited with code 0
2021/10/28 14:19:58 [notice] 1#1: worker process 24 exited with code 0
2021/10/28 14:19:58 [notice] 1#1: signal 29 (SIGIO) received
2021/10/28 14:19:58 [notice] 1#1: signal 17 (SIGCHLD) received from 23
2021/10/28 14:19:58 [notice] 1#1: signal 17 (SIGCHLD) received from 22
2021/10/28 14:19:58 [notice] 1#1: worker process 22 exited with code 0
2021/10/28 14:19:58 [notice] 1#1: signal 29 (SIGIO) received
2021/10/28 14:19:58 [notice] 1#1: signal 17 (SIGCHLD) received from 27
2021/10/28 14:19:58 [notice] 1#1: worker process 27 exited with code 0
2021/10/28 14:19:58 [notice] 1#1: exit
2021/10/28 14:25:07 [notice] 1#1: using the "epoll" event method
2021/10/28 14:25:07 [notice] 1#1: nginx/1.21.3
2021/10/28 14:25:07 [notice] 1#1: built by gcc 8.3.0 (Debian 8.3.0-6) 
2021/10/28 14:25:07 [notice] 1#1: OS: Linux 5.11.0-38-generic
2021/10/28 14:25:07 [notice] 1#1: getrlimit(RLIMIT_NOFILE): 1048576:1048576
2021/10/28 14:25:07 [notice] 1#1: start worker processes
2021/10/28 14:25:07 [notice] 1#1: start worker process 23
2021/10/28 14:25:07 [notice] 1#1: start worker process 24
2021/10/28 14:25:07 [notice] 1#1: start worker process 25
2021/10/28 14:25:07 [notice] 1#1: start worker process 26
2021/10/28 14:25:07 [notice] 1#1: start worker process 27
2021/10/28 14:25:07 [notice] 1#1: start worker process 28
2021/10/28 17:33:01 [notice] 1#1: signal 3 (SIGQUIT) received, shutting down
2021/10/28 17:33:01 [notice] 23#23: gracefully shutting down
2021/10/28 17:33:01 [notice] 25#25: gracefully shutting down
2021/10/28 17:33:01 [notice] 23#23: exiting
2021/10/28 17:33:01 [notice] 24#24: gracefully shutting down
2021/10/28 17:33:01 [notice] 26#26: gracefully shutting down
2021/10/28 17:33:01 [notice] 27#27: gracefully shutting down
2021/10/28 17:33:01 [notice] 25#25: exiting
2021/10/28 17:33:01 [notice] 24#24: exiting
2021/10/28 17:33:01 [notice] 26#26: exiting
2021/10/28 17:33:01 [notice] 27#27: exiting
2021/10/28 17:33:01 [notice] 23#23: exit
2021/10/28 17:33:01 [notice] 25#25: exit
2021/10/28 17:33:01 [notice] 24#24: exit
2021/10/28 17:33:01 [notice] 26#26: exit
2021/10/28 17:33:01 [notice] 27#27: exit
2021/10/28 17:33:01 [notice] 28#28: gracefully shutting down
2021/10/28 17:33:01 [notice] 28#28: exiting
2021/10/28 17:33:01 [notice] 28#28: exit
2021/10/28 17:33:01 [notice] 1#1: signal 17 (SIGCHLD) received from 26
2021/10/28 17:33:01 [notice] 1#1: worker process 26 exited with code 0
2021/10/28 17:33:01 [notice] 1#1: signal 29 (SIGIO) received
2021/10/28 17:33:01 [notice] 1#1: signal 17 (SIGCHLD) received from 27
2021/10/28 17:33:01 [notice] 1#1: worker process 24 exited with code 0
2021/10/28 17:33:01 [notice] 1#1: worker process 27 exited with code 0
2021/10/28 17:33:01 [notice] 1#1: signal 29 (SIGIO) received
2021/10/28 17:33:01 [notice] 1#1: signal 17 (SIGCHLD) received from 23
2021/10/28 17:33:01 [notice] 1#1: worker process 23 exited with code 0
2021/10/28 17:33:01 [notice] 1#1: worker process 25 exited with code 0
2021/10/28 17:33:01 [notice] 1#1: worker process 28 exited with code 0
2021/10/28 17:33:01 [notice] 1#1: exit
2021/11/08 08:02:42 [notice] 1#1: using the "epoll" event method
2021/11/08 08:02:42 [notice] 1#1: nginx/1.21.3
2021/11/08 08:02:42 [notice] 1#1: built by gcc 8.3.0 (Debian 8.3.0-6) 
2021/11/08 08:02:42 [notice] 1#1: OS: Linux 5.11.0-38-generic
2021/11/08 08:02:42 [notice] 1#1: getrlimit(RLIMIT_NOFILE): 1048576:1048576
2021/11/08 08:02:42 [notice] 1#1: start worker processes
2021/11/08 08:02:42 [notice] 1#1: start worker process 22
2021/11/08 08:02:42 [notice] 1#1: start worker process 23
2021/11/08 08:02:42 [notice] 1#1: start worker process 24
2021/11/08 08:02:42 [notice] 1#1: start worker process 25
2021/11/08 08:02:42 [notice] 1#1: start worker process 26
2021/11/08 08:02:42 [notice] 1#1: start worker process 27
2021/11/08 11:54:42 [notice] 1#1: signal 3 (SIGQUIT) received, shutting down
2021/11/08 11:54:42 [notice] 22#22: gracefully shutting down
2021/11/08 11:54:42 [notice] 23#23: gracefully shutting down
2021/11/08 11:54:42 [notice] 22#22: exiting
2021/11/08 11:54:42 [notice] 26#26: gracefully shutting down
2021/11/08 11:54:42 [notice] 25#25: gracefully shutting down
2021/11/08 11:54:42 [notice] 23#23: exiting
2021/11/08 11:54:42 [notice] 24#24: gracefully shutting down
2021/11/08 11:54:42 [notice] 26#26: exiting
2021/11/08 11:54:42 [notice] 25#25: exiting
2021/11/08 11:54:42 [notice] 22#22: exit
2021/11/08 11:54:42 [notice] 23#23: exit
2021/11/08 11:54:42 [notice] 24#24: exiting
2021/11/08 11:54:42 [notice] 27#27: gracefully shutting down
2021/11/08 11:54:42 [notice] 26#26: exit
2021/11/08 11:54:42 [notice] 25#25: exit
2021/11/08 11:54:42 [notice] 24#24: exit
2021/11/08 11:54:42 [notice] 27#27: exiting
2021/11/08 11:54:42 [notice] 27#27: exit
2021/11/08 11:54:42 [notice] 1#1: signal 17 (SIGCHLD) received from 23
2021/11/08 11:54:42 [notice] 1#1: worker process 23 exited with code 0
2021/11/08 11:54:42 [notice] 1#1: worker process 24 exited with code 0
2021/11/08 11:54:42 [notice] 1#1: signal 29 (SIGIO) received
2021/11/08 11:54:42 [notice] 1#1: signal 17 (SIGCHLD) received from 24
2021/11/08 11:54:42 [notice] 1#1: signal 17 (SIGCHLD) received from 25
2021/11/08 11:54:42 [notice] 1#1: worker process 25 exited with code 0
2021/11/08 11:54:42 [notice] 1#1: worker process 26 exited with code 0
2021/11/08 11:54:42 [notice] 1#1: worker process 27 exited with code 0
2021/11/08 11:54:42 [notice] 1#1: signal 29 (SIGIO) received
2021/11/08 11:54:42 [notice] 1#1: signal 17 (SIGCHLD) received from 27
2021/11/08 11:54:42 [notice] 1#1: signal 17 (SIGCHLD) received from 22
2021/11/08 11:54:42 [notice] 1#1: worker process 22 exited with code 0
2021/11/08 11:54:42 [notice] 1#1: exit
2021/11/08 11:54:43 [notice] 1#1: using the "epoll" event method
2021/11/08 11:54:43 [notice] 1#1: nginx/1.21.3
2021/11/08 11:54:43 [notice] 1#1: built by gcc 8.3.0 (Debian 8.3.0-6) 
2021/11/08 11:54:43 [notice] 1#1: OS: Linux 5.11.0-38-generic
2021/11/08 11:54:43 [notice] 1#1: getrlimit(RLIMIT_NOFILE): 1048576:1048576
2021/11/08 11:54:43 [notice] 1#1: start worker processes
2021/11/08 11:54:43 [notice] 1#1: start worker process 22
2021/11/08 11:54:43 [notice] 1#1: start worker process 23
2021/11/08 11:54:43 [notice] 1#1: start worker process 24
2021/11/08 11:54:43 [notice] 1#1: start worker process 25
2021/11/08 11:54:43 [notice] 1#1: start worker process 26
2021/11/08 11:54:43 [notice] 1#1: start worker process 27
2021/11/08 14:50:14 [notice] 1#1: signal 3 (SIGQUIT) received, shutting down
2021/11/08 14:50:14 [notice] 23#23: gracefully shutting down
2021/11/08 14:50:14 [notice] 25#25: gracefully shutting down
2021/11/08 14:50:14 [notice] 26#26: gracefully shutting down
2021/11/08 14:50:14 [notice] 23#23: exiting
2021/11/08 14:50:14 [notice] 24#24: gracefully shutting down
2021/11/08 14:50:14 [notice] 25#25: exiting
2021/11/08 14:50:14 [notice] 26#26: exiting
2021/11/08 14:50:14 [notice] 24#24: exiting
2021/11/08 14:50:14 [notice] 23#23: exit
2021/11/08 14:50:14 [notice] 25#25: exit
2021/11/08 14:50:14 [notice] 24#24: exit
2021/11/08 14:50:14 [notice] 26#26: exit
2021/11/08 14:50:14 [notice] 22#22: gracefully shutting down
2021/11/08 14:50:14 [notice] 27#27: gracefully shutting down
2021/11/08 14:50:14 [notice] 27#27: exiting
2021/11/08 14:50:14 [notice] 27#27: exit
2021/11/08 14:50:14 [notice] 1#1: signal 17 (SIGCHLD) received from 26
2021/11/08 14:50:14 [notice] 1#1: worker process 26 exited with code 0
2021/11/08 14:50:14 [notice] 1#1: signal 29 (SIGIO) received
2021/11/08 14:50:14 [notice] 1#1: signal 17 (SIGCHLD) received from 23
2021/11/08 14:50:14 [notice] 1#1: worker process 23 exited with code 0
2021/11/08 14:50:14 [notice] 1#1: signal 29 (SIGIO) received
2021/11/08 14:50:14 [notice] 1#1: signal 17 (SIGCHLD) received from 24
2021/11/08 14:50:14 [notice] 1#1: worker process 24 exited with code 0
2021/11/08 14:50:14 [notice] 1#1: signal 29 (SIGIO) received
2021/11/08 14:50:14 [notice] 1#1: signal 17 (SIGCHLD) received from 25
2021/11/08 14:50:14 [notice] 1#1: worker process 25 exited with code 0
2021/11/08 14:50:14 [notice] 1#1: signal 29 (SIGIO) received
2021/11/08 14:50:14 [notice] 1#1: signal 17 (SIGCHLD) received from 27
2021/11/08 14:50:14 [notice] 1#1: worker process 27 exited with code 0
2021/11/08 14:50:14 [notice] 1#1: signal 29 (SIGIO) received
2021/11/08 14:50:14 [notice] 22#22: exiting
2021/11/08 14:50:14 [notice] 22#22: exit
2021/11/08 14:50:14 [notice] 1#1: signal 17 (SIGCHLD) received from 22
2021/11/08 14:50:14 [notice] 1#1: worker process 22 exited with code 0
2021/11/08 14:50:14 [notice] 1#1: exit
2021/11/15 07:03:53 [notice] 1#1: using the "epoll" event method
2021/11/15 07:03:53 [notice] 1#1: nginx/1.21.3
2021/11/15 07:03:53 [notice] 1#1: built by gcc 8.3.0 (Debian 8.3.0-6) 
2021/11/15 07:03:53 [notice] 1#1: OS: Linux 5.11.0-38-generic
2021/11/15 07:03:53 [notice] 1#1: getrlimit(RLIMIT_NOFILE): 1048576:1048576
2021/11/15 07:03:53 [notice] 1#1: start worker processes
2021/11/15 07:03:53 [notice] 1#1: start worker process 21
2021/11/15 07:03:53 [notice] 1#1: start worker process 22
2021/11/15 07:03:53 [notice] 1#1: start worker process 23
2021/11/15 07:03:53 [notice] 1#1: start worker process 24
2021/11/15 07:03:53 [notice] 1#1: start worker process 25
2021/11/15 07:03:53 [notice] 1#1: start worker process 26
2021/11/15 16:21:54 [notice] 1#1: signal 3 (SIGQUIT) received, shutting down
2021/11/15 16:21:54 [notice] 21#21: gracefully shutting down
2021/11/15 16:21:54 [notice] 21#21: exiting
2021/11/15 16:21:54 [notice] 25#25: gracefully shutting down
2021/11/15 16:21:54 [notice] 23#23: gracefully shutting down
2021/11/15 16:21:54 [notice] 25#25: exiting
2021/11/15 16:21:54 [notice] 23#23: exiting
2021/11/15 16:21:54 [notice] 21#21: exit
2021/11/15 16:21:54 [notice] 25#25: exit
2021/11/15 16:21:54 [notice] 23#23: exit
2021/11/15 16:21:54 [notice] 26#26: gracefully shutting down
2021/11/15 16:21:54 [notice] 26#26: exiting
2021/11/15 16:21:54 [notice] 26#26: exit
2021/11/15 16:21:54 [notice] 24#24: gracefully shutting down
2021/11/15 16:21:54 [notice] 24#24: exiting
2021/11/15 16:21:54 [notice] 24#24: exit
2021/11/15 16:21:54 [notice] 22#22: gracefully shutting down
2021/11/15 16:21:54 [notice] 22#22: exiting
2021/11/15 16:21:54 [notice] 22#22: exit
2021/11/15 16:21:54 [notice] 1#1: signal 17 (SIGCHLD) received from 25
2021/11/15 16:21:54 [notice] 1#1: worker process 25 exited with code 0
2021/11/15 16:21:54 [notice] 1#1: signal 29 (SIGIO) received
2021/11/15 16:21:54 [notice] 1#1: signal 17 (SIGCHLD) received from 21
2021/11/15 16:21:54 [notice] 1#1: worker process 21 exited with code 0
2021/11/15 16:21:54 [notice] 1#1: signal 29 (SIGIO) received
2021/11/15 16:21:54 [notice] 1#1: signal 17 (SIGCHLD) received from 26
2021/11/15 16:21:54 [notice] 1#1: worker process 23 exited with code 0
2021/11/15 16:21:54 [notice] 1#1: worker process 26 exited with code 0
2021/11/15 16:21:54 [notice] 1#1: signal 29 (SIGIO) received
2021/11/15 16:21:54 [notice] 1#1: signal 17 (SIGCHLD) received from 24
2021/11/15 16:21:54 [notice] 1#1: worker process 24 exited with code 0
2021/11/15 16:21:54 [notice] 1#1: signal 29 (SIGIO) received
2021/11/15 16:21:54 [notice] 1#1: signal 17 (SIGCHLD) received from 22
2021/11/15 16:21:54 [notice] 1#1: worker process 22 exited with code 0
2021/11/15 16:21:54 [notice] 1#1: exit
2021/11/17 07:33:08 [notice] 1#1: using the "epoll" event method
2021/11/17 07:33:08 [notice] 1#1: nginx/1.21.3
2021/11/17 07:33:08 [notice] 1#1: built by gcc 8.3.0 (Debian 8.3.0-6) 
2021/11/17 07:33:08 [notice] 1#1: OS: Linux 5.11.0-40-generic
2021/11/17 07:33:08 [notice] 1#1: getrlimit(RLIMIT_NOFILE): 1048576:1048576
2021/11/17 07:33:08 [notice] 1#1: start worker processes
2021/11/17 07:33:08 [notice] 1#1: start worker process 22
2021/11/17 07:33:08 [notice] 1#1: start worker process 23
2021/11/17 07:33:08 [notice] 1#1: start worker process 24
2021/11/17 07:33:08 [notice] 1#1: start worker process 25
2021/11/17 07:33:08 [notice] 1#1: start worker process 26
2021/11/17 07:33:08 [notice] 1#1: start worker process 27
2021/11/17 15:15:57 [notice] 1#1: signal 3 (SIGQUIT) received, shutting down
2021/11/17 15:15:57 [notice] 24#24: gracefully shutting down
2021/11/17 15:15:57 [notice] 25#25: gracefully shutting down
2021/11/17 15:15:57 [notice] 24#24: exiting
2021/11/17 15:15:57 [notice] 25#25: exiting
2021/11/17 15:15:57 [notice] 25#25: exit
2021/11/17 15:15:57 [notice] 24#24: exit
2021/11/17 15:15:57 [notice] 26#26: gracefully shutting down
2021/11/17 15:15:57 [notice] 26#26: exiting
2021/11/17 15:15:57 [notice] 26#26: exit
2021/11/17 15:15:57 [notice] 27#27: gracefully shutting down
2021/11/17 15:15:57 [notice] 27#27: exiting
2021/11/17 15:15:57 [notice] 27#27: exit
2021/11/17 15:15:57 [notice] 23#23: gracefully shutting down
2021/11/17 15:15:57 [notice] 23#23: exiting
2021/11/17 15:15:57 [notice] 23#23: exit
2021/11/17 15:15:57 [notice] 22#22: gracefully shutting down
2021/11/17 15:15:57 [notice] 22#22: exiting
2021/11/17 15:15:57 [notice] 22#22: exit
2021/11/17 15:15:57 [notice] 1#1: signal 17 (SIGCHLD) received from 27
2021/11/17 15:15:57 [notice] 1#1: worker process 27 exited with code 0
2021/11/17 15:15:57 [notice] 1#1: worker process 23 exited with code 0
2021/11/17 15:15:57 [notice] 1#1: signal 29 (SIGIO) received
2021/11/17 15:15:57 [notice] 1#1: signal 17 (SIGCHLD) received from 23
2021/11/17 15:15:57 [notice] 1#1: signal 17 (SIGCHLD) received from 26
2021/11/17 15:15:57 [notice] 1#1: worker process 26 exited with code 0
2021/11/17 15:15:57 [notice] 1#1: signal 29 (SIGIO) received
2021/11/17 15:15:57 [notice] 1#1: signal 17 (SIGCHLD) received from 22
2021/11/17 15:15:57 [notice] 1#1: worker process 22 exited with code 0
2021/11/17 15:15:57 [notice] 1#1: worker process 25 exited with code 0
2021/11/17 15:15:57 [notice] 1#1: signal 29 (SIGIO) received
2021/11/17 15:15:57 [notice] 1#1: signal 17 (SIGCHLD) received from 24
2021/11/17 15:15:57 [notice] 1#1: worker process 24 exited with code 0
2021/11/17 15:15:57 [notice] 1#1: exit
2021/11/22 06:35:42 [notice] 1#1: using the "epoll" event method
2021/11/22 06:35:42 [notice] 1#1: nginx/1.21.3
2021/11/22 06:35:42 [notice] 1#1: built by gcc 8.3.0 (Debian 8.3.0-6) 
2021/11/22 06:35:42 [notice] 1#1: OS: Linux 5.11.0-40-generic
2021/11/22 06:35:42 [notice] 1#1: getrlimit(RLIMIT_NOFILE): 1048576:1048576
2021/11/22 06:35:42 [notice] 1#1: start worker processes
2021/11/22 06:35:42 [notice] 1#1: start worker process 22
2021/11/22 06:35:42 [notice] 1#1: start worker process 23
2021/11/22 06:35:42 [notice] 1#1: start worker process 24
2021/11/22 06:35:42 [notice] 1#1: start worker process 25
2021/11/22 06:35:42 [notice] 1#1: start worker process 26
2021/11/22 06:35:42 [notice] 1#1: start worker process 27
2021/11/22 13:09:04 [notice] 1#1: signal 3 (SIGQUIT) received, shutting down
2021/11/22 13:09:04 [notice] 23#23: gracefully shutting down
2021/11/22 13:09:04 [notice] 23#23: exiting
2021/11/22 13:09:04 [notice] 26#26: gracefully shutting down
2021/11/22 13:09:04 [notice] 26#26: exiting
2021/11/22 13:09:04 [notice] 23#23: exit
2021/11/22 13:09:04 [notice] 26#26: exit
2021/11/22 13:09:04 [notice] 27#27: gracefully shutting down
2021/11/22 13:09:04 [notice] 27#27: exiting
2021/11/22 13:09:04 [notice] 27#27: exit
2021/11/22 13:09:04 [notice] 24#24: gracefully shutting down
2021/11/22 13:09:04 [notice] 24#24: exiting
2021/11/22 13:09:04 [notice] 24#24: exit
2021/11/22 13:09:04 [notice] 25#25: gracefully shutting down
2021/11/22 13:09:04 [notice] 25#25: exiting
2021/11/22 13:09:04 [notice] 25#25: exit
2021/11/22 13:09:04 [notice] 22#22: gracefully shutting down
2021/11/22 13:09:04 [notice] 22#22: exiting
2021/11/22 13:09:04 [notice] 22#22: exit
2021/11/22 13:09:04 [notice] 1#1: signal 17 (SIGCHLD) received from 27
2021/11/22 13:09:04 [notice] 1#1: worker process 22 exited with code 0
2021/11/22 13:09:04 [notice] 1#1: worker process 27 exited with code 0
2021/11/22 13:09:04 [notice] 1#1: signal 29 (SIGIO) received
2021/11/22 13:09:04 [notice] 1#1: signal 17 (SIGCHLD) received from 22
2021/11/22 13:09:04 [notice] 1#1: signal 17 (SIGCHLD) received from 26
2021/11/22 13:09:04 [notice] 1#1: worker process 26 exited with code 0
2021/11/22 13:09:04 [notice] 1#1: signal 29 (SIGIO) received
2021/11/22 13:09:04 [notice] 1#1: signal 17 (SIGCHLD) received from 24
2021/11/22 13:09:04 [notice] 1#1: worker process 24 exited with code 0
2021/11/22 13:09:04 [notice] 1#1: signal 29 (SIGIO) received
2021/11/22 13:09:04 [notice] 1#1: signal 17 (SIGCHLD) received from 25
2021/11/22 13:09:04 [notice] 1#1: worker process 25 exited with code 0
2021/11/22 13:09:04 [notice] 1#1: signal 29 (SIGIO) received
2021/11/22 13:09:04 [notice] 1#1: signal 17 (SIGCHLD) received from 23
2021/11/22 13:09:04 [notice] 1#1: worker process 23 exited with code 0
2021/11/22 13:09:04 [notice] 1#1: exit
2021/12/21 13:25:54 [notice] 1#1: using the "epoll" event method
2021/12/21 13:25:54 [notice] 1#1: nginx/1.21.4
2021/12/21 13:25:54 [notice] 1#1: built by gcc 10.2.1 20210110 (Debian 10.2.1-6) 
2021/12/21 13:25:54 [notice] 1#1: OS: Linux 5.11.0-43-generic
2021/12/21 13:25:54 [notice] 1#1: getrlimit(RLIMIT_NOFILE): 1048576:1048576
2021/12/21 13:25:54 [notice] 1#1: start worker processes
2021/12/21 13:25:54 [notice] 1#1: start worker process 22
2021/12/21 13:25:54 [notice] 1#1: start worker process 23
2021/12/21 13:25:54 [notice] 1#1: start worker process 24
2021/12/21 13:25:54 [notice] 1#1: start worker process 25
2021/12/21 13:25:54 [notice] 1#1: start worker process 26
2021/12/21 13:25:54 [notice] 1#1: start worker process 27
2021/12/21 15:36:25 [notice] 1#1: signal 3 (SIGQUIT) received, shutting down
2021/12/21 15:36:25 [notice] 23#23: gracefully shutting down
2021/12/21 15:36:25 [notice] 23#23: exiting
2021/12/21 15:36:25 [notice] 23#23: exit
2021/12/21 15:36:25 [notice] 22#22: gracefully shutting down
2021/12/21 15:36:25 [notice] 22#22: exiting
2021/12/21 15:36:25 [notice] 22#22: exit
2021/12/21 15:36:25 [notice] 24#24: gracefully shutting down
2021/12/21 15:36:25 [notice] 24#24: exiting
2021/12/21 15:36:25 [notice] 24#24: exit
2021/12/21 15:36:25 [notice] 25#25: gracefully shutting down
2021/12/21 15:36:25 [notice] 25#25: exiting
2021/12/21 15:36:25 [notice] 25#25: exit
2021/12/21 15:36:25 [notice] 27#27: gracefully shutting down
2021/12/21 15:36:25 [notice] 27#27: exiting
2021/12/21 15:36:25 [notice] 27#27: exit
2021/12/21 15:36:25 [notice] 26#26: gracefully shutting down
2021/12/21 15:36:25 [notice] 26#26: exiting
2021/12/21 15:36:25 [notice] 26#26: exit
2021/12/21 15:36:25 [notice] 1#1: signal 17 (SIGCHLD) received from 26
2021/12/21 15:36:25 [notice] 1#1: worker process 26 exited with code 0
2021/12/21 15:36:25 [notice] 1#1: signal 29 (SIGIO) received
2021/12/21 15:36:25 [notice] 1#1: signal 17 (SIGCHLD) received from 27
2021/12/21 15:36:25 [notice] 1#1: worker process 27 exited with code 0
2021/12/21 15:36:25 [notice] 1#1: signal 29 (SIGIO) received
2021/12/21 15:36:25 [notice] 1#1: signal 17 (SIGCHLD) received from 22
2021/12/21 15:36:25 [notice] 1#1: worker process 22 exited with code 0
2021/12/21 15:36:25 [notice] 1#1: worker process 24 exited with code 0
2021/12/21 15:36:25 [notice] 1#1: worker process 25 exited with code 0
2021/12/21 15:36:25 [notice] 1#1: signal 29 (SIGIO) received
2021/12/21 15:36:25 [notice] 1#1: signal 17 (SIGCHLD) received from 25
2021/12/21 15:36:25 [notice] 1#1: signal 17 (SIGCHLD) received from 23
2021/12/21 15:36:25 [notice] 1#1: worker process 23 exited with code 0
2021/12/21 15:36:25 [notice] 1#1: exit
2021/12/21 15:36:26 [notice] 1#1: using the "epoll" event method
2021/12/21 15:36:26 [notice] 1#1: nginx/1.21.4
2021/12/21 15:36:26 [notice] 1#1: built by gcc 10.2.1 20210110 (Debian 10.2.1-6) 
2021/12/21 15:36:26 [notice] 1#1: OS: Linux 5.11.0-43-generic
2021/12/21 15:36:26 [notice] 1#1: getrlimit(RLIMIT_NOFILE): 1048576:1048576
2021/12/21 15:36:26 [notice] 1#1: start worker processes
2021/12/21 15:36:26 [notice] 1#1: start worker process 23
2021/12/21 15:36:26 [notice] 1#1: start worker process 24
2021/12/21 15:36:26 [notice] 1#1: start worker process 25
2021/12/21 15:36:26 [notice] 1#1: start worker process 26
2021/12/21 15:36:26 [notice] 1#1: start worker process 27
2021/12/21 15:36:26 [notice] 1#1: start worker process 28
2021/12/21 17:06:20 [notice] 1#1: signal 3 (SIGQUIT) received, shutting down
2021/12/21 17:06:20 [notice] 23#23: gracefully shutting down
2021/12/21 17:06:20 [notice] 23#23: exiting
2021/12/21 17:06:20 [notice] 25#25: gracefully shutting down
2021/12/21 17:06:20 [notice] 25#25: exiting
2021/12/21 17:06:20 [notice] 23#23: exit
2021/12/21 17:06:20 [notice] 25#25: exit
2021/12/21 17:06:20 [notice] 26#26: gracefully shutting down
2021/12/21 17:06:20 [notice] 24#24: gracefully shutting down
2021/12/21 17:06:20 [notice] 26#26: exiting
2021/12/21 17:06:20 [notice] 24#24: exiting
2021/12/21 17:06:20 [notice] 26#26: exit
2021/12/21 17:06:20 [notice] 24#24: exit
2021/12/21 17:06:20 [notice] 27#27: gracefully shutting down
2021/12/21 17:06:20 [notice] 28#28: gracefully shutting down
2021/12/21 17:06:20 [notice] 27#27: exiting
2021/12/21 17:06:20 [notice] 28#28: exiting
2021/12/21 17:06:20 [notice] 27#27: exit
2021/12/21 17:06:20 [notice] 28#28: exit
2021/12/21 17:06:20 [notice] 1#1: signal 17 (SIGCHLD) received from 25
2021/12/21 17:06:20 [notice] 1#1: worker process 25 exited with code 0
2021/12/21 17:06:20 [notice] 1#1: signal 29 (SIGIO) received
2021/12/21 17:06:20 [notice] 1#1: signal 17 (SIGCHLD) received from 27
2021/12/21 17:06:20 [notice] 1#1: worker process 27 exited with code 0
2021/12/21 17:06:20 [notice] 1#1: signal 29 (SIGIO) received
2021/12/21 17:06:20 [notice] 1#1: signal 17 (SIGCHLD) received from 26
2021/12/21 17:06:20 [notice] 1#1: worker process 26 exited with code 0
2021/12/21 17:06:20 [notice] 1#1: signal 29 (SIGIO) received
2021/12/21 17:06:20 [notice] 1#1: signal 17 (SIGCHLD) received from 23
2021/12/21 17:06:20 [notice] 1#1: worker process 23 exited with code 0
2021/12/21 17:06:20 [notice] 1#1: worker process 24 exited with code 0
2021/12/21 17:06:20 [notice] 1#1: worker process 28 exited with code 0
2021/12/21 17:06:20 [notice] 1#1: exit
2021/12/22 08:19:21 [notice] 1#1: using the "epoll" event method
2021/12/22 08:19:21 [notice] 1#1: nginx/1.21.4
2021/12/22 08:19:21 [notice] 1#1: built by gcc 10.2.1 20210110 (Debian 10.2.1-6) 
2021/12/22 08:19:21 [notice] 1#1: OS: Linux 5.11.0-43-generic
2021/12/22 08:19:21 [notice] 1#1: getrlimit(RLIMIT_NOFILE): 1048576:1048576
2021/12/22 08:19:21 [notice] 1#1: start worker processes
2021/12/22 08:19:21 [notice] 1#1: start worker process 22
2021/12/22 08:19:21 [notice] 1#1: start worker process 23
2021/12/22 08:19:21 [notice] 1#1: start worker process 24
2021/12/22 08:19:21 [notice] 1#1: start worker process 25
2021/12/22 08:19:21 [notice] 1#1: start worker process 26
2021/12/22 08:19:21 [notice] 1#1: start worker process 27
2021/12/22 14:55:59 [notice] 1#1: signal 3 (SIGQUIT) received, shutting down
2021/12/22 14:55:59 [notice] 22#22: gracefully shutting down
2021/12/22 14:55:59 [notice] 24#24: gracefully shutting down
2021/12/22 14:55:59 [notice] 26#26: gracefully shutting down
2021/12/22 14:55:59 [notice] 27#27: gracefully shutting down
2021/12/22 14:55:59 [notice] 22#22: exiting
2021/12/22 14:55:59 [notice] 24#24: exiting
2021/12/22 14:55:59 [notice] 26#26: exiting
2021/12/22 14:55:59 [notice] 27#27: exiting
2021/12/22 14:55:59 [notice] 24#24: exit
2021/12/22 14:55:59 [notice] 26#26: exit
2021/12/22 14:55:59 [notice] 22#22: exit
2021/12/22 14:55:59 [notice] 27#27: exit
2021/12/22 14:55:59 [notice] 23#23: gracefully shutting down
2021/12/22 14:55:59 [notice] 25#25: gracefully shutting down
2021/12/22 14:55:59 [notice] 23#23: exiting
2021/12/22 14:55:59 [notice] 25#25: exiting
2021/12/22 14:55:59 [notice] 23#23: exit
2021/12/22 14:55:59 [notice] 25#25: exit
2021/12/22 14:55:59 [notice] 1#1: signal 17 (SIGCHLD) received from 27
2021/12/22 14:55:59 [notice] 1#1: worker process 22 exited with code 0
2021/12/22 14:55:59 [notice] 1#1: worker process 27 exited with code 0
2021/12/22 14:55:59 [notice] 1#1: signal 29 (SIGIO) received
2021/12/22 14:55:59 [notice] 1#1: signal 17 (SIGCHLD) received from 24
2021/12/22 14:55:59 [notice] 1#1: worker process 24 exited with code 0
2021/12/22 14:55:59 [notice] 1#1: worker process 25 exited with code 0
2021/12/22 14:55:59 [notice] 1#1: signal 29 (SIGIO) received
2021/12/22 14:55:59 [notice] 1#1: signal 17 (SIGCHLD) received from 25
2021/12/22 14:55:59 [notice] 1#1: signal 17 (SIGCHLD) received from 26
2021/12/22 14:55:59 [notice] 1#1: worker process 26 exited with code 0
2021/12/22 14:55:59 [notice] 1#1: signal 29 (SIGIO) received
2021/12/22 14:55:59 [notice] 1#1: signal 17 (SIGCHLD) received from 23
2021/12/22 14:55:59 [notice] 1#1: worker process 23 exited with code 0
2021/12/22 14:55:59 [notice] 1#1: exit
2021/12/22 14:56:00 [notice] 1#1: using the "epoll" event method
2021/12/22 14:56:00 [notice] 1#1: nginx/1.21.4
2021/12/22 14:56:00 [notice] 1#1: built by gcc 10.2.1 20210110 (Debian 10.2.1-6) 
2021/12/22 14:56:00 [notice] 1#1: OS: Linux 5.11.0-43-generic
2021/12/22 14:56:00 [notice] 1#1: getrlimit(RLIMIT_NOFILE): 1048576:1048576
2021/12/22 14:56:00 [notice] 1#1: start worker processes
2021/12/22 14:56:00 [notice] 1#1: start worker process 22
2021/12/22 14:56:00 [notice] 1#1: start worker process 23
2021/12/22 14:56:00 [notice] 1#1: start worker process 24
2021/12/22 14:56:00 [notice] 1#1: start worker process 25
2021/12/22 14:56:00 [notice] 1#1: start worker process 26
2021/12/22 14:56:00 [notice] 1#1: start worker process 27
